{
  "buildFiles": [
    "/Users/bgporter/AnL/git/sxsw/Timer/Builds/Android/app/CMakeLists.txt"
  ],
  "cleanCommands": [
    "/Users/bgporter/Library/Android/sdk/cmake/3.6.4111459/bin/cmake --build /Users/bgporter/AnL/git/sxsw/Timer/Builds/Android/app/.externalNativeBuild/cmake/release_Release/armeabi-v7a --target clean"
  ],
  "libraries": {
    "cpufeatures-Release-armeabi-v7a": {
      "artifactName": "cpufeatures",
      "buildCommand": "/Users/bgporter/Library/Android/sdk/cmake/3.6.4111459/bin/cmake --build /Users/bgporter/AnL/git/sxsw/Timer/Builds/Android/app/.externalNativeBuild/cmake/release_Release/armeabi-v7a --target cpufeatures",
      "abi": "armeabi-v7a",
      "output": "/Users/bgporter/AnL/git/sxsw/Timer/Builds/Android/app/.externalNativeBuild/cmake/release_Release/armeabi-v7a/libcpufeatures.a"
    },
    "juce_jni-Release-armeabi-v7a": {
      "artifactName": "juce_jni",
      "buildCommand": "/Users/bgporter/Library/Android/sdk/cmake/3.6.4111459/bin/cmake --build /Users/bgporter/AnL/git/sxsw/Timer/Builds/Android/app/.externalNativeBuild/cmake/release_Release/armeabi-v7a --target juce_jni",
      "abi": "armeabi-v7a",
      "output": "/Users/bgporter/AnL/git/sxsw/Timer/Builds/Android/app/build/intermediates/cmake/release_/release/obj/armeabi-v7a/libjuce_jni.so"
    }
  }
}